<?xml version="1.0" encoding="utf-8"?><!-- Uploaded to: SVG Repo, www.svgrepo.com, Generator: SVG Repo Mixer Tools -->
<svg  viewBox="0 0 24 24" fill="none" xmlns="http://www.w3.org/2000/svg">
<path d="M9 5H7C5.89543 5 5 5.89543 5 7V19C5 20.1046 5.89543 21 7 21H9M15 5H17C18.1046 5 19 5.89543 19 7V9" stroke="#000000" stroke-width="2" stroke-linecap="round" stroke-linejoin="round"/>
<path d="M14.902 20.3343L12.7153 20.7716L13.1526 18.585C13.1914 18.3914 13.2865 18.2136 13.4261 18.074L17.5 14L19.5 12L21.4869 13.9869L19.4869 15.9869L15.413 20.0608C15.2734 20.2004 15.0956 20.2956 14.902 20.3343Z" stroke="#000000" stroke-width="2" stroke-linecap="round" stroke-linejoin="round"/>
<path d="M9 5C9 3.89543 9.89543 3 11 3H13C14.1046 3 15 3.89543 15 5V7H9V5Z" stroke="#000000" stroke-width="2" stroke-linecap="round" stroke-linejoin="round"/>
</svg>